2014-10-07 22:44:41,480 MainProcess Environment INFO     I will us the hdf5 file `/Users/erwanledoux/Documents/ProfessionalSYS/Modules/Init/Modules/00e_Pypeter/hdf5/trajectory_2014_10_07_22h44m41s.hdf5`.
2014-10-07 22:44:41,483 MainProcess Environment INFO     Environment initialized.
2014-10-07 22:44:41,485 MainProcess Environment INFO     I will us the hdf5 file `/Users/erwanledoux/Documents/ProfessionalSYS/Modules/Init/Modules/00e_Pypeter/hdf5/trajectory_2014_10_07_22h44m41s.hdf5`.
2014-10-07 22:44:41,485 MainProcess Environment INFO     I will us the hdf5 file `/Users/erwanledoux/Documents/ProfessionalSYS/Modules/Init/Modules/00e_Pypeter/hdf5/trajectory_2014_10_07_22h44m41s.hdf5`.
2014-10-07 22:44:41,487 MainProcess Environment INFO     Environment initialized.
2014-10-07 22:44:41,487 MainProcess Environment INFO     Environment initialized.
2014-10-07 22:44:41,487 MainProcess STDOUT INFO     ('nnn', < (SumClass) >
2014-10-07 22:44:41,487 MainProcess STDOUT INFO     ('nnn', < (SumClass) >
2014-10-07 22:44:41,488 MainProcess STDOUT INFO     {
2014-10-07 22:44:41,488 MainProcess STDOUT INFO     {
2014-10-07 22:44:41,488 MainProcess STDOUT INFO        /'<NotSpe>AppendedKeyStringsList' : []
2014-10-07 22:44:41,488 MainProcess STDOUT INFO        /'<NotSpe>AppendedKeyStringsList' : []
2014-10-07 22:44:41,488 MainProcess STDOUT INFO        /'<NotSpe>AppendedValueVariablesList' : []
2014-10-07 22:44:41,488 MainProcess STDOUT INFO        /'<NotSpe>AppendedValueVariablesList' : []
2014-10-07 22:44:41,488 MainProcess STDOUT INFO        /'<Spe>MaxFloat' : 100.0
2014-10-07 22:44:41,488 MainProcess STDOUT INFO        /'<Spe>MaxFloat' : 100.0
2014-10-07 22:44:41,489 MainProcess STDOUT INFO        /'<Spe>MinFloat' : -100.0
2014-10-07 22:44:41,489 MainProcess STDOUT INFO        /'<Spe>MinFloat' : -100.0
2014-10-07 22:44:41,489 MainProcess STDOUT INFO        /'<Spe>SumInt' : 0
2014-10-07 22:44:41,489 MainProcess STDOUT INFO        /'<Spe>SumInt' : 0
2014-10-07 22:44:41,489 MainProcess STDOUT INFO        /'<Spe>SumIntsList' : [0, 0]
2014-10-07 22:44:41,489 MainProcess STDOUT INFO        /'<Spe>SumIntsList' : [0, 0]
2014-10-07 22:44:41,489 MainProcess STDOUT INFO      })
2014-10-07 22:44:41,489 MainProcess STDOUT INFO      })
2014-10-07 22:44:41,490 MainProcess STDOUT INFO     #################
2014-10-07 22:44:41,490 MainProcess STDOUT INFO     #################
2014-10-07 22:44:41,491 MainProcess STDOUT INFO     <test_01_append>
2014-10-07 22:44:41,491 MainProcess STDOUT INFO     <test_01_append>
2014-10-07 22:44:41,491 MainProcess STDOUT INFO     #################
2014-10-07 22:44:41,491 MainProcess STDOUT INFO     #################
2014-10-07 22:44:41,491 MainProcess STDOUT INFO     AssertingString is :
2014-10-07 22:44:41,491 MainProcess STDOUT INFO     AssertingString is :
2014-10-07 22:44:41,491 MainProcess STDOUT INFO     < (PypeterClass) >
2014-10-07 22:44:41,491 MainProcess STDOUT INFO     < (PypeterClass) >
2014-10-07 22:44:41,491 MainProcess STDOUT INFO     {
2014-10-07 22:44:41,491 MainProcess STDOUT INFO     {
2014-10-07 22:44:41,492 MainProcess STDOUT INFO        /'<NotSpe>AppendedKeyStringsList' : ['(MinFloat,-100.0)_(MaxFloat,100.0)']
2014-10-07 22:44:41,492 MainProcess STDOUT INFO        /'<NotSpe>AppendedKeyStringsList' : ['(MinFloat,-100.0)_(MaxFloat,100.0)']
2014-10-07 22:44:41,492 MainProcess STDOUT INFO        /'<NotSpe>AppendedValueVariablesList' :
2014-10-07 22:44:41,492 MainProcess STDOUT INFO        /'<NotSpe>AppendedValueVariablesList' :
2014-10-07 22:44:41,492 MainProcess STDOUT INFO        /[
2014-10-07 22:44:41,492 MainProcess STDOUT INFO        /[
2014-10-07 22:44:41,492 MainProcess STDOUT INFO        /   /'0' : < (SumClass) >
2014-10-07 22:44:41,492 MainProcess STDOUT INFO        /   /'0' : < (SumClass) >
2014-10-07 22:44:41,493 MainProcess STDOUT INFO        /   /{
2014-10-07 22:44:41,493 MainProcess STDOUT INFO        /   /{
2014-10-07 22:44:41,493 MainProcess STDOUT INFO        /   /   /'<NotSpe>AppendedKeyStringsList' : []
2014-10-07 22:44:41,493 MainProcess STDOUT INFO        /   /   /'<NotSpe>AppendedKeyStringsList' : []
2014-10-07 22:44:41,493 MainProcess STDOUT INFO        /   /   /'<NotSpe>AppendedValueVariablesList' : []
2014-10-07 22:44:41,493 MainProcess STDOUT INFO        /   /   /'<NotSpe>AppendedValueVariablesList' : []
2014-10-07 22:44:41,493 MainProcess STDOUT INFO        /   /   /'<Spe>MaxFloat' : 100.0
2014-10-07 22:44:41,493 MainProcess STDOUT INFO        /   /   /'<Spe>MaxFloat' : 100.0
2014-10-07 22:44:41,493 MainProcess STDOUT INFO        /   /   /'<Spe>MinFloat' : -100.0
2014-10-07 22:44:41,493 MainProcess STDOUT INFO        /   /   /'<Spe>MinFloat' : -100.0
2014-10-07 22:44:41,494 MainProcess STDOUT INFO        /   /   /'<Spe>SumInt' : 0
2014-10-07 22:44:41,494 MainProcess STDOUT INFO        /   /   /'<Spe>SumInt' : 0
2014-10-07 22:44:41,494 MainProcess STDOUT INFO        /   /   /'<Spe>SumIntsList' : [0, 0]
2014-10-07 22:44:41,494 MainProcess STDOUT INFO        /   /   /'<Spe>SumIntsList' : [0, 0]
2014-10-07 22:44:41,494 MainProcess STDOUT INFO        /   / }
2014-10-07 22:44:41,494 MainProcess STDOUT INFO        /   / }
2014-10-07 22:44:41,494 MainProcess STDOUT INFO        / ]
2014-10-07 22:44:41,494 MainProcess STDOUT INFO        / ]
2014-10-07 22:44:41,494 MainProcess STDOUT INFO        /'<Spe>PypetEnvironnementPointer' : < (Environment) >
2014-10-07 22:44:41,494 MainProcess STDOUT INFO        /'<Spe>PypetEnvironnementPointer' : < (Environment) >
2014-10-07 22:44:41,495 MainProcess STDOUT INFO      }
2014-10-07 22:44:41,495 MainProcess STDOUT INFO      }
2014-10-07 22:44:41,495 MainProcess STDOUT INFO     AssertedString is :
2014-10-07 22:44:41,495 MainProcess STDOUT INFO     AssertedString is :
2014-10-07 22:44:41,497 MainProcess Environment INFO     I will us the hdf5 file `/Users/erwanledoux/Documents/ProfessionalSYS/Modules/Init/Modules/00e_Pypeter/hdf5/trajectory_2014_10_07_22h44m41s.hdf5`.
2014-10-07 22:44:41,497 MainProcess Environment INFO     I will us the hdf5 file `/Users/erwanledoux/Documents/ProfessionalSYS/Modules/Init/Modules/00e_Pypeter/hdf5/trajectory_2014_10_07_22h44m41s.hdf5`.
2014-10-07 22:44:41,499 MainProcess Environment INFO     Environment initialized.
2014-10-07 22:44:41,499 MainProcess Environment INFO     Environment initialized.
2014-10-07 22:44:41,500 MainProcess STDOUT INFO     ('nnn', < (SumClass) >
2014-10-07 22:44:41,500 MainProcess STDOUT INFO     ('nnn', < (SumClass) >
2014-10-07 22:44:41,500 MainProcess STDOUT INFO     {
2014-10-07 22:44:41,500 MainProcess STDOUT INFO     {
2014-10-07 22:44:41,500 MainProcess STDOUT INFO        /'<NotSpe>AppendedKeyStringsList' : []
2014-10-07 22:44:41,500 MainProcess STDOUT INFO        /'<NotSpe>AppendedKeyStringsList' : []
2014-10-07 22:44:41,500 MainProcess STDOUT INFO        /'<NotSpe>AppendedValueVariablesList' : []
2014-10-07 22:44:41,500 MainProcess STDOUT INFO        /'<NotSpe>AppendedValueVariablesList' : []
2014-10-07 22:44:41,501 MainProcess STDOUT INFO        /'<Spe>MaxFloat' : 100.0
2014-10-07 22:44:41,501 MainProcess STDOUT INFO        /'<Spe>MaxFloat' : 100.0
2014-10-07 22:44:41,501 MainProcess STDOUT INFO        /'<Spe>MinFloat' : -100.0
2014-10-07 22:44:41,501 MainProcess STDOUT INFO        /'<Spe>MinFloat' : -100.0
2014-10-07 22:44:41,501 MainProcess STDOUT INFO        /'<Spe>SumInt' : 0
2014-10-07 22:44:41,501 MainProcess STDOUT INFO        /'<Spe>SumInt' : 0
2014-10-07 22:44:41,501 MainProcess STDOUT INFO        /'<Spe>SumIntsList' : [0, 0]
2014-10-07 22:44:41,501 MainProcess STDOUT INFO        /'<Spe>SumIntsList' : [0, 0]
2014-10-07 22:44:41,502 MainProcess STDOUT INFO      })
2014-10-07 22:44:41,502 MainProcess STDOUT INFO      })
2014-10-07 22:44:41,503 MainProcess STDOUT INFO     < (PypeterClass) >
2014-10-07 22:44:41,503 MainProcess STDOUT INFO     < (PypeterClass) >
2014-10-07 22:44:41,503 MainProcess STDOUT INFO     {
2014-10-07 22:44:41,503 MainProcess STDOUT INFO     {
2014-10-07 22:44:41,503 MainProcess STDOUT INFO        /'<NotSpe>AppendedKeyStringsList' : ['(MinFloat,-100.0)_(MaxFloat,100.0)']
2014-10-07 22:44:41,503 MainProcess STDOUT INFO        /'<NotSpe>AppendedKeyStringsList' : ['(MinFloat,-100.0)_(MaxFloat,100.0)']
2014-10-07 22:44:41,503 MainProcess STDOUT INFO        /'<NotSpe>AppendedValueVariablesList' :
2014-10-07 22:44:41,503 MainProcess STDOUT INFO        /'<NotSpe>AppendedValueVariablesList' :
2014-10-07 22:44:41,504 MainProcess STDOUT INFO        /[
2014-10-07 22:44:41,504 MainProcess STDOUT INFO        /[
2014-10-07 22:44:41,504 MainProcess STDOUT INFO        /   /'0' : < (SumClass) >
2014-10-07 22:44:41,504 MainProcess STDOUT INFO        /   /'0' : < (SumClass) >
2014-10-07 22:44:41,504 MainProcess STDOUT INFO        /   /{
2014-10-07 22:44:41,504 MainProcess STDOUT INFO        /   /{
2014-10-07 22:44:41,504 MainProcess STDOUT INFO        /   /   /'<NotSpe>AppendedKeyStringsList' : []
2014-10-07 22:44:41,504 MainProcess STDOUT INFO        /   /   /'<NotSpe>AppendedKeyStringsList' : []
2014-10-07 22:44:41,505 MainProcess STDOUT INFO        /   /   /'<NotSpe>AppendedValueVariablesList' : []
2014-10-07 22:44:41,505 MainProcess STDOUT INFO        /   /   /'<NotSpe>AppendedValueVariablesList' : []
2014-10-07 22:44:41,505 MainProcess STDOUT INFO        /   /   /'<Spe>MaxFloat' : 100.0
2014-10-07 22:44:41,505 MainProcess STDOUT INFO        /   /   /'<Spe>MaxFloat' : 100.0
2014-10-07 22:44:41,505 MainProcess STDOUT INFO        /   /   /'<Spe>MinFloat' : -100.0
2014-10-07 22:44:41,505 MainProcess STDOUT INFO        /   /   /'<Spe>MinFloat' : -100.0
2014-10-07 22:44:41,505 MainProcess STDOUT INFO        /   /   /'<Spe>SumInt' : 0
2014-10-07 22:44:41,505 MainProcess STDOUT INFO        /   /   /'<Spe>SumInt' : 0
2014-10-07 22:44:41,506 MainProcess STDOUT INFO        /   /   /'<Spe>SumIntsList' : [0, 0]
2014-10-07 22:44:41,506 MainProcess STDOUT INFO        /   /   /'<Spe>SumIntsList' : [0, 0]
2014-10-07 22:44:41,506 MainProcess STDOUT INFO        /   / }
2014-10-07 22:44:41,506 MainProcess STDOUT INFO        /   / }
2014-10-07 22:44:41,506 MainProcess STDOUT INFO        / ]
2014-10-07 22:44:41,506 MainProcess STDOUT INFO        / ]
2014-10-07 22:44:41,506 MainProcess STDOUT INFO        /'<Spe>PypetEnvironnementPointer' : < (Environment) >
2014-10-07 22:44:41,506 MainProcess STDOUT INFO        /'<Spe>PypetEnvironnementPointer' : < (Environment) >
2014-10-07 22:44:41,506 MainProcess STDOUT INFO      }
2014-10-07 22:44:41,506 MainProcess STDOUT INFO      }
2014-10-07 22:44:41,508 MainProcess Environment INFO     I will us the hdf5 file `/Users/erwanledoux/Documents/ProfessionalSYS/Modules/Init/Modules/00e_Pypeter/hdf5/trajectory_2014_10_07_22h44m41s.hdf5`.
2014-10-07 22:44:41,508 MainProcess Environment INFO     I will us the hdf5 file `/Users/erwanledoux/Documents/ProfessionalSYS/Modules/Init/Modules/00e_Pypeter/hdf5/trajectory_2014_10_07_22h44m41s.hdf5`.
2014-10-07 22:44:41,511 MainProcess Environment INFO     Environment initialized.
2014-10-07 22:44:41,511 MainProcess Environment INFO     Environment initialized.
2014-10-07 22:44:41,512 MainProcess STDOUT INFO     ('nnn', < (SumClass) >
2014-10-07 22:44:41,512 MainProcess STDOUT INFO     ('nnn', < (SumClass) >
2014-10-07 22:44:41,512 MainProcess STDOUT INFO     {
2014-10-07 22:44:41,512 MainProcess STDOUT INFO     {
2014-10-07 22:44:41,512 MainProcess STDOUT INFO        /'<NotSpe>AppendedKeyStringsList' : []
2014-10-07 22:44:41,512 MainProcess STDOUT INFO        /'<NotSpe>AppendedKeyStringsList' : []
2014-10-07 22:44:41,512 MainProcess STDOUT INFO        /'<NotSpe>AppendedValueVariablesList' : []
2014-10-07 22:44:41,512 MainProcess STDOUT INFO        /'<NotSpe>AppendedValueVariablesList' : []
2014-10-07 22:44:41,513 MainProcess STDOUT INFO        /'<Spe>MaxFloat' : 100.0
2014-10-07 22:44:41,513 MainProcess STDOUT INFO        /'<Spe>MaxFloat' : 100.0
2014-10-07 22:44:41,513 MainProcess STDOUT INFO        /'<Spe>MinFloat' : -100.0
2014-10-07 22:44:41,513 MainProcess STDOUT INFO        /'<Spe>MinFloat' : -100.0
2014-10-07 22:44:41,513 MainProcess STDOUT INFO        /'<Spe>SumInt' : 0
2014-10-07 22:44:41,513 MainProcess STDOUT INFO        /'<Spe>SumInt' : 0
2014-10-07 22:44:41,513 MainProcess STDOUT INFO        /'<Spe>SumIntsList' : [0, 0]
2014-10-07 22:44:41,513 MainProcess STDOUT INFO        /'<Spe>SumIntsList' : [0, 0]
2014-10-07 22:44:41,514 MainProcess STDOUT INFO      })
2014-10-07 22:44:41,514 MainProcess STDOUT INFO      })
