2014-10-07 22:29:34,758 MainProcess Environment INFO     I will us the hdf5 file `/Users/erwanledoux/Documents/ProfessionalSYS/Modules/Init/Modules/00e_Pypeter/hdf5/trajectory_2014_10_07_22h29m34s.hdf5`.
2014-10-07 22:29:34,763 MainProcess Environment INFO     Environment initialized.
2014-10-07 22:29:34,773 MainProcess Environment INFO     I will us the hdf5 file `/Users/erwanledoux/Documents/ProfessionalSYS/Modules/Init/Modules/00e_Pypeter/hdf5/trajectory_2014_10_07_22h29m34s.hdf5`.
2014-10-07 22:29:34,780 MainProcess Environment INFO     Environment initialized.
2014-10-07 22:29:34,781 MainProcess STDOUT INFO     #################
2014-10-07 22:29:34,783 MainProcess STDOUT INFO     <test_00_default>
2014-10-07 22:29:34,784 MainProcess STDOUT INFO     #################
2014-10-07 22:29:34,785 MainProcess STDOUT INFO     AssertingString is :
2014-10-07 22:29:34,786 MainProcess STDOUT INFO     < (PypeterClass)>
2014-10-07 22:29:34,787 MainProcess STDOUT INFO     {
2014-10-07 22:29:34,788 MainProcess STDOUT INFO        /'<New>PypetEnvironnementPointer' : < (Environment)>
2014-10-07 22:29:34,789 MainProcess STDOUT INFO        /'<NotSpe>AppendedKeyStringsList' : []
2014-10-07 22:29:34,790 MainProcess STDOUT INFO        /'<NotSpe>AppendedValueVariablesList' : []
2014-10-07 22:29:34,791 MainProcess STDOUT INFO      }
2014-10-07 22:29:34,792 MainProcess STDOUT INFO     AssertedString is :
2014-10-07 22:29:34,795 MainProcess Environment INFO     I will us the hdf5 file `/Users/erwanledoux/Documents/ProfessionalSYS/Modules/Init/Modules/00e_Pypeter/hdf5/trajectory_2014_10_07_22h29m34s.hdf5`.
2014-10-07 22:29:34,802 MainProcess Environment INFO     Environment initialized.
2014-10-07 22:29:34,805 MainProcess STDOUT INFO     < (PypeterClass)>
2014-10-07 22:29:34,806 MainProcess STDOUT INFO     {
2014-10-07 22:29:34,808 MainProcess STDOUT INFO        /'<New>PypetEnvironnementPointer' : < (Environment)>
2014-10-07 22:29:34,810 MainProcess STDOUT INFO        /'<NotSpe>AppendedKeyStringsList' : []
2014-10-07 22:29:34,811 MainProcess STDOUT INFO        /'<NotSpe>AppendedValueVariablesList' : []
2014-10-07 22:29:34,813 MainProcess STDOUT INFO      }
2014-10-07 22:29:34,816 MainProcess Environment INFO     I will us the hdf5 file `/Users/erwanledoux/Documents/ProfessionalSYS/Modules/Init/Modules/00e_Pypeter/hdf5/trajectory_2014_10_07_22h29m34s.hdf5`.
2014-10-07 22:29:34,823 MainProcess Environment INFO     Environment initialized.
