{
  "AddingDatabase": "AddingDatabases", 
  "AddingInstancingLister": "AddingInstancingListers", 
  "AddingItemizer": "AddingItemizers", 
  "AddingLister": "AddingListers", 
  "Agent": "Agents", 
  "Appender": "Appenders", 
  "Applyier": "Applyiers", 
  "Array": "Arrays", 
  "BaseTypesFilter": "BaseTypesFilters", 
  "BaseTypesRestricter": "BaseTypesRestricters", 
  "Binder": "Binders", 
  "BrianedConnection": "BrianedConnections", 
  "BrianedNetwork": "BrianedNetworks", 
  "BrianedPopulation": "BrianedPopulations", 
  "CIntegrateAndFireTransferFunction": "CIntegrateAndFireTransferFunctions", 
  "Calcul": "Calculs", 
  "Caller": "Callers", 
  "CallingObject": "CallingObjects", 
  "Child": "Childs", 
  "Code": "Codes", 
  "Collection": "Collections", 
  "Collector": "Collectors", 
  "Commander": "Commanders", 
  "Commit": "Commits", 
  "Committer": "Committers", 
  "Config": "Configs", 
  "Connecter": "Connecters", 
  "Connection": "Connections", 
  "Console": "Consoles", 
  "ConstantScale": "ConstantScales", 
  "ConstantScalesLister": "ConstantScalesListers", 
  "Control": "Controls", 
  "Controller": "Controllers", 
  "Coordinate": "Coordinates", 
  "CoupledRanker": "CoupledRankers", 
  "CoupledTupler": "CoupledTuplers", 
  "Coupler": "Couplers", 
  "Database": "Databases", 
  "Debugger": "Debuggers", 
  "Decorator": "Decorators", 
  "DeepCollector": "DeepCollectors", 
  "DeepDelivery": "DeepDeliverys", 
  "DeepGetter": "DeepGetters", 
  "DeepPicker": "DeepPickers", 
  "DeepPickingDictionnary": "DeepPickingDictionnarys", 
  "DeepPickingObject": "DeepPickingObjects", 
  "DeepSetter": "DeepSetters", 
  "Deleter": "Deleters", 
  "Deliver": "Delivers", 
  "DeliveringDictionnary": "DeliveringDictionnarys", 
  "DeliveringObject": "DeliveringObjects", 
  "Delivery": "Deliverys", 
  "DemandingLister": "DemandingListers", 
  "Deriver": "Derivers", 
  "DictatedObject": "DictatedObjects", 
  "DictatedObjectGrandChild": "DictatedObjectGrandChilds", 
  "Dicter": "Dictionnaries", 
  "Dictionnary": "Dictionnarys", 
  "DictionnaryDicterPointeringTyper": "DictionnaryDicterPointeringTypers", 
  "Diffuser": "Diffusers", 
  "Diffusion": "Diffusions", 
  "Dir": "Dirs", 
  "Distance": "Distances", 
  "DjangoModel": "DjangoModels", 
  "Doer": "Doers", 
  "Dynamic": "Dynamics", 
  "DynamicNetwork": "DynamicNetworks", 
  "DynamicPopulation": "DynamicPopulations", 
  "Element": "Elements", 
  "ExampleA": "ExampleAs", 
  "Executer": "Executers", 
  "Explorer": "Explorers", 
  "Familiarizer": "Familiarizers", 
  "FamiliarizerAddingLister": "FamiliarizerAddingListers", 
  "FamiliarizerLister": "FamiliarizerListers", 
  "Featurer": "Featurers", 
  "File": "Files", 
  "Filter": "Filters", 
  "FilteringDicter": "FilteringDicters", 
  "FilteringItemizer": "FilteringItemizers", 
  "Finder": "Finders", 
  "Findor": "Findors", 
  "Finnder": "Finnders", 
  "Flusher": "Flushers", 
  "FromDicterFilter": "FromDicterFilters", 
  "FromFilterFunctor": "FromFilterFunctors", 
  "Functor": "Functors", 
  "Getter": "Getters", 
  "GlobalDynamic": "GlobalDynamics", 
  "GrandChild": "GrandChilds", 
  "Grider": "Griders", 
  "Gridion": "Gridions", 
  "Grinder": "Grinders", 
  "Group": "Groups", 
  "Grouper": "Groupers", 
  "GroupingDictionnary": "GroupingDictionnarys", 
  "GroupingObject": "GroupingObjects", 
  "H5pyFile": "H5pyFiles", 
  "HdfFile": "HdfFiles", 
  "Hdfiler": "Hdfilers", 
  "Hdformater": "Hdformaters", 
  "HdformatingRecorder": "HdformatingRecorders", 
  "Hierarcher": "Hierarchers", 
  "Hooker": "Hookers", 
  "IdentifiedObject": "IdentifiedObjects", 
  "Identifier": "Identifiers", 
  "Identity": "Identities", 
  "Im": "Ims", 
  "Image": "Images", 
  "Indent": "Indents", 
  "Index": "Indexs", 
  "Init": "Inits", 
  "Initiater": "Initiaters", 
  "InstancedListedVariablesLister": "InstancedListedVariablesListers", 
  "Instancer": "Instancers", 
  "InstancingDicter": "InstancingDicters", 
  "InstancingDicterPointeringTyper": "InstancingDicterPointeringTypers", 
  "InstancingDictionnary": "InstancingDictionnarys", 
  "InstancingLister": "InstancingListers", 
  "InstancingListerPointeringTyper": "InstancingListerPointeringTypers", 
  "InstancingObject": "InstancingObjects", 
  "InstancingSetter": "InstancingSetters", 
  "InstancingStructuratingLister": "InstancingStructuratingListers", 
  "InstancingTyperLister": "InstancingTyperListers", 
  "InstancingTypingLister": "InstancingTypingListers", 
  "InstancingUse": "InstancingUses", 
  "IntegrateAndFireTransferFunctionSwig": "IntegrateAndFireTransferFunctionSwigs", 
  "Interaction": "Interactions", 
  "Itemizer": "Itemizers", 
  "Join": "Joins", 
  "Joiner": "Joiners", 
  "JoiningDictionnary": "JoiningDictionnarys", 
  "JoiningObject": "JoiningObjects", 
  "LifTransferFunctor": "LifTransferFunctors", 
  "LilypondFile": "LilypondFiles", 
  "ListedBinder": "ListedBinders", 
  "ListedBindersListedLister": "ListedBindersListedListers", 
  "ListedLister": "ListedListers", 
  "ListedObject": "ListedObjects", 
  "Lister": "Listers", 
  "ListersLister": "ListersListers", 
  "Loader": "Loaders", 
  "MappedCoordinate": "MappedCoordinates", 
  "Mapper": "Mappers", 
  "Matrix": "Matrixs", 
  "Merger": "Mergers", 
  "Model": "Models", 
  "Modeler": "Modelers", 
  "Module": "Modules", 
  "ModuleFunctor": "ModuleFunctors", 
  "Modulus": "Moduluss", 
  "Mul": "Muls", 
  "MutableCoupler": "MutableCouplers", 
  "NamedObject": "NamedObjects", 
  "NamingLister": "NamingListers", 
  "Network": "Networks", 
  "Node": "Nodes", 
  "Noder": "Noders", 
  "Note": "Notes", 
  "Object": "Objects", 
  "ObjectUser": "ObjectUsers", 
  "OfCollector_Sorter": "OfCollector_Sorters", 
  "OfCollector_Structurer": "OfCollector_Structurers", 
  "OfCommitter_Hdfiler": "OfCommitter_Hdfilers", 
  "OfCommitter_Identifier": "OfCommitter_Identifiers", 
  "OfController_Itemizer": "OfController_Itemizers", 
  "OfController_Object": "OfController_Objects", 
  "OfDiffusion_Stimulation": "OfDiffusion_Stimulations", 
  "OfFilter_Functor": "OfFilter_Functors", 
  "OfHdfiler_File": "OfHdfiler_Files", 
  "OfObject_Dicter": "OfObject_Dicters", 
  "OfProcedurer_Committer": "OfProcedurer_Committers", 
  "OfProcedurer_H5pyFile": "OfProcedurer_H5pyFiles", 
  "OfProcedurer_Recorder": "OfProcedurer_Recorders", 
  "OfProcedurer_Scanner": "OfProcedurer_Scanners", 
  "OfRecorder_Stimulater": "OfRecorder_Stimulaters", 
  "OfSorter_BaseTypesFilter": "OfSorter_BaseTypesFilters", 
  "OfSorter_Filter": "OfSorter_Filters", 
  "OfSorter_Itemizer": "OfSorter_Itemizers", 
  "OfStructurer_Itemizer": "OfStructurer_Itemizers", 
  "OfStructurer_Structurer": "OfStructurer_Structurers", 
  "OfUser_Dicter": "OfUser_Dicters", 
  "OfUser_Dictionnary": "OfUser_Dictionnarys", 
  "OfUser_Object": "OfUser_Objects", 
  "OfUsingDictionnary_Object": "OfUsingDictionnary_Objects", 
  "Outputer": "Outputers", 
  "OutputingModeler": "OutputingModelers", 
  "Parent": "Parents", 
  "ParentLister": "ParentListers", 
  "Parenter": "Parenters", 
  "Parser": "Parsers", 
  "ParsingDictionnary": "ParsingDictionnarys", 
  "Patcher": "Patchers", 
  "Pather": "Pathers", 
  "Permutater": "Permutaters", 
  "Permutation": "Permutations", 
  "PerturbatingDynamic": "PerturbatingDynamics", 
  "Pick": "Picks", 
  "Picker": "Pickers", 
  "PickingDictionnary": "PickingDictionnarys", 
  "PickingObject": "PickingObjects", 
  "PitchSet": "PitchSets", 
  "PitchesSet": "PitchesSets", 
  "Player": "Players", 
  "PointeringUse": "PointeringUses", 
  "PointersDicter": "PointersDicters", 
  "Population": "Populations", 
  "PopulationNetwork": "PopulationNetworks", 
  "PrintedHooker": "PrintedHookers", 
  "Printer": "Printers", 
  "Procedurer": "Procedurers", 
  "Protocol": "Protocols", 
  "Pypeter": "Pypeters", 
  "RankedLister": "RankedListers", 
  "Ranker": "Rankers", 
  "RecordedObject": "RecordedObjects", 
  "Recorder": "Recorders", 
  "RecordingDictionnary": "RecordingDictionnarys", 
  "Recoverer": "Recoverers", 
  "Repeater": "Repeaters", 
  "Representer": "Representers", 
  "Restricter": "Restricters", 
  "Retriever": "Retrievers", 
  "RootedScalesLister": "RootedScalesListers", 
  "Rower": "Rowers", 
  "Scale": "Scales", 
  "Scaler": "Scalers", 
  "ScalesLister": "ScalesListers", 
  "Scan": "Scans", 
  "Scanner": "Scanners", 
  "ScanningDictionnary": "ScanningDictionnarys", 
  "ScanningObject": "ScanningObjects", 
  "Seed": "Seeds", 
  "Setter": "Setters", 
  "Shaper": "Shapers", 
  "ShareYourSystem": "ShareYourSystems", 
  "SimulatingDynamic": "SimulatingDynamics", 
  "Sort": "Sorts", 
  "SortedObject": "SortedObjects", 
  "SortedStructuratingLister": "SortedStructuratingListers", 
  "SortedStructuratingObject": "SortedStructuratingObjects", 
  "SortedStructuratingStructuresPointeringObject": "SortedStructuratingStructuresPointeringObjects", 
  "SortedStructuredObject": "SortedStructuredObjects", 
  "Sorter": "Sorters", 
  "SortingDictionnary": "SortingDictionnarys", 
  "SortingLister": "SortingListers", 
  "SpecificDatabase": "SpecificDatabases", 
  "SpecificInstancingLister": "SpecificInstancingListers", 
  "SpecificInstancingStructuratingLister": "SpecificInstancingStructuratingListers", 
  "SpecificItemizer": "SpecificItemizers", 
  "Stimulater": "Stimulaters", 
  "Stimulation": "Stimulations", 
  "Store": "Stores", 
  "Storer": "Storers", 
  "StoringDictionnary": "StoringDictionnarys", 
  "StrictDicter": "StrictDicters", 
  "StrictInstancingUse": "StrictInstancingUses", 
  "StructuratingLister": "StructuratingListers", 
  "StructuratingListersTypingStructurePointeringTyper": "StructuratingListersTypingStructurePointeringTypers", 
  "StructuratingStructuresPointeringObject": "StructuratingStructuresPointeringObjects", 
  "StructuratingStructuresTypingStructurePointeringTyper": "StructuratingStructuresTypingStructurePointeringTypers", 
  "Structure": "Structures", 
  "StructuredObject": "StructuredObjects", 
  "Structurer": "Structurers", 
  "StructuringDictionnary": "StructuringDictionnarys", 
  "StructuringItemizer": "StructuringItemizers", 
  "StructuringObject": "StructuringObjects", 
  "Sum": "Sums", 
  "SuperDynamic": "SuperDynamics", 
  "SuperLister": "SuperListers", 
  "SuperScale": "SuperScales", 
  "SuperScalesLister": "SuperScalesListers", 
  "SuperStructuratingLister": "SuperStructuratingListers", 
  "Swig": "Swigs", 
  "Switcher": "Switchers", 
  "Table": "Tables", 
  "Tablor": "Tablors", 
  "Tabularer": "Tabularers", 
  "Tagger": "Taggers", 
  "Tester": "Testers", 
  "TextFile": "TextFiles", 
  "Toolbox": "Toolboxs", 
  "Tree": "Trees", 
  "Trial": "Trials", 
  "Tupler": "Tuplers", 
  "TurningExplorer": "TurningExplorers", 
  "Type": "Types", 
  "TypeStringDeriver": "TypeStringDerivers", 
  "TypeUse": "TypeUses", 
  "TypedGrandChild": "TypedGrandChilds", 
  "Typer": "Typers", 
  "Use": "Uses", 
  "UsedObject": "UsedObjects", 
  "User": "Users", 
  "UsesLister": "UsesListers", 
  "UsingDictionnary": "UsingDictionnarys", 
  "UsingLister": "UsingListers", 
  "VariableInstancer": "VariableInstancers", 
  "VariableString": "SingularStringToPluralStringInstalledDict", 
  "Vector": "Vectors", 
  "__main__": "__main__s"
}