Object is : 
< (JoinerClass), 4493129424>
{ 
   /'<New>ModeledGrandParentPointersList' : []
   /'<New>ModeledInt' : -1
   /'<New>ModeledParentPointer' : < (NoneType), 4411016504>
   /'<New>ModeledPathString' : /
   /'<New>MyFloat' : 0.1
   /'<New>MyFloatsList' : [2.3, 4.5, 1.1]
   /'<New>MyString' : hello
   /'<New>StructuredGrandParentPointersList' : []
   /'<New>StructuredInt' : -1
   /'<New>StructuredKeyString' : 
   /'<New>StructuredOrderedDict' : 
   /{ 
   /   /'ChildJoiner1' : < (JoinerClass), 4494542032>
   /   /{ 
   /   /   /'<New>ModeledGrandParentPointersList' : []
   /   /   /'<New>ModeledInt' : -1
   /   /   /'<New>ModeledParentPointer' : < (NoneType), 4411016504>
   /   /   /'<New>ModeledPathString' : /
   /   /   /'<New>MyIntsList' : [2, 4, 1]
   /   /   /'<New>StructuredGrandParentKeyStringsList' : ['']
   /   /   /'<New>StructuredGrandParentPointersList' : ['< (JoinerClass), 4493129424>']
   /   /   /'<New>StructuredInt' : 0
   /   /   /'<New>StructuredKeyString' : ChildJoiner1
   /   /   /'<New>StructuredOrderedDict' : 
   /   /   /{ 
   /   /
   /   /   / }
   /   /   /'<New>StructuredParentPointer' : < (JoinerClass), 4493129424>
   /   /   /'<New>StructuredPathString' : /ChildJoiner1
   /   /   /'<New>StructuredPathStringsList' : ['', 'ChildJoiner1']
   /   /   /'<New>UnitsInt' : 3
   /   /   /'<NotSpe>ModeledOrderedDict' : 
   /   /   /{ 
   /   /   /   /'FeaturingDict' : 
   /   /   /   /{ 
   /   /   /   /   /'AlmostShapingColumningTuplesList' : 
   /   /   /   /   /[ 
   /   /   /   /   /   /'0' : 
   /   /   /   /   /   /( 
   /   /   /   /   /   /   /'0' : MyIntsList
   /   /   /   /   /   /   /'1' : 
   /   /   /   /   /   /   /( 
   /   /   /   /   /   /   /   /'0' : <class 'tables.description.Int64Col'>
   /   /   /   /   /   /   /   /'1' : UnitsInt
   /   /   /   /   /   /   / )
   /   /   /   /   /   / )
   /   /   /   /   / ]
   /   /   /   /   /'ColumningTuplesList' : 
   /   /   /   /   /[ 
   /   /   /   /   /   /'0' : 
   /   /   /   /   /   /( 
   /   /   /   /   /   /   /'0' : MyIntsList
   /   /   /   /   /   /   /'1' : 
   /   /   /   /   /   /   /( 
   /   /   /   /   /   /   /   /'0' : <class 'tables.description.Int64Col'>
   /   /   /   /   /   /   /   /'1' : UnitsInt
   /   /   /   /   /   /   / )
   /   /   /   /   /   / )
   /   /   /   /   / ]
   /   /   /   /   /'ModelClassesOrderedDict' : 
   /   /   /   /   /{ 
   /   /   /   /   /   /'FeaturedModelClass' : <class 'tables.description.FeaturedModelClass'>
   /   /   /   /   / }
   /   /   /   /   /'NotShapingColumningTuplesList' : []
   /   /   /   /   /'TablesOrderedDict' : 
   /   /   /   /   /{ 
   /   /   /   /   /   /'FeaturedTable' : /ChildJoiner1/FeaturedTable (Table(0,)) 'This is the FeaturedModelClass'
   /   /   /   /   /   /  description := {
   /   /   /   /   /   /  "ModeledInt": Int64Col(shape=(), dflt=0, pos=0)}
   /   /   /   /   /   /  byteorder := 'little'
   /   /   /   /   /   /  chunkshape := (8192,)
   /   /   /   /   / }
   /   /   /   / }
   /   /   / }
   /   /   /'<Spe>JoinedVariablesList' : []
   /   / }
   / }
   /'<New>StructuredParentPointer' : < (NoneType), 4411016504>
   /'<New>StructuredPathString' : /
   /'<New>UnitsInt' : 3
   /'<NotSpe>ModeledOrderedDict' : 
   /{ 
   /   /'FeaturingDict' : 
   /   /{ 
   /   /   /'AlmostShapingColumningTuplesList' : []
   /   /   /'ColumningTuplesList' : 
   /   /   /[ 
   /   /   /   /'0' : 
   /   /   /   /( 
   /   /   /   /   /'0' : MyString
   /   /   /   /   /'1' : StringCol(itemsize=10, shape=(), dflt='', pos=None)
   /   /   /   / )
   /   /   / ]
   /   /   /'ModelClassesOrderedDict' : 
   /   /   /{ 
   /   /   /   /'FeaturedModelClass' : <class 'tables.description.FeaturedModelClass'>
   /   /   / }
   /   /   /'NotShapingColumningTuplesList' : 
   /   /   /[ 
   /   /   /   /'0' : 
   /   /   /   /( 
   /   /   /   /   /'0' : MyString
   /   /   /   /   /'1' : StringCol(itemsize=10, shape=(), dflt='', pos=None)
   /   /   /   / )
   /   /   / ]
   /   /   /'TablesOrderedDict' : 
   /   /   /{ 
   /   /   /   /'FeaturedTable' : /FeaturedTable (Table(0,)) 'This is the FeaturedModelClass'
   /   /   /   /  description := {
   /   /   /   /  "ModeledInt": Int64Col(shape=(), dflt=0, pos=0),
   /   /   /   /  "MyString": StringCol(itemsize=10, shape=(), dflt='', pos=1)}
   /   /   /   /  byteorder := 'little'
   /   /   /   /  chunkshape := (3640,)
   /   /   / }
   /   / }
   /   /'OutputingDict' : 
   /   /{ 
   /   /   /'ColumningTuplesList' : 
   /   /   /[ 
   /   /   /   /'0' : 
   /   /   /   /( 
   /   /   /   /   /'0' : MyFloat
   /   /   /   /   /'1' : Float32Col(shape=(), dflt=0.0, pos=None)
   /   /   /   / )
   /   /   /   /'1' : 
   /   /   /   /( 
   /   /   /   /   /'0' : MyFloatsList
   /   /   /   /   /'1' : 
   /   /   /   /   /( 
   /   /   /   /   /   /'0' : <class 'tables.description.Float32Col'>
   /   /   /   /   /   /'1' : UnitsInt
   /   /   /   /   / )
   /   /   /   / )
   /   /   / ]
   /   / }
   / }
   /'<Spe>JoinedVariablesList' : []
 }


dict_proxy({'__module__': 'tables.description', '__doc__': None, 'columns': {'MyString': StringCol(itemsize=10, shape=(), dflt='', pos=None), 'ModeledInt': Int64Col(shape=(), dflt=0, pos=None)}})


/                        Group
/ChildJoiner1            Group
/ChildJoiner1/FeaturedTable Dataset {0/Inf}
    Data:

/FeaturedTable           Dataset {0/Inf}
    Data:

