< (NodeClass) >
{ 
   /'<New>SortedGrandParentPointersList' : []
   /'<New>SortedInt' : -1
   /'<New>SortedKeyString' : 
   /'<New>SortedOrderedDict' : 
   /{ 
   /   /'' : < (NodeClass) >
   /   /{ 
   /   /   /'<New>SortedGrandParentPointersList' : []
   /   /   /'<New>SortedInt' : 0
   /   /   /'<New>SortedKeyString' : 
   /   /   /'<New>SortedParentPointer' : < (NodeClass) >
   /   /   /'<New>SortedPathString' : 
   /   / }
   / }
   /'<New>SortedParentPointer' : < (NoneType) >
   /'<New>SortedPathString' : /
   /'<New>StructuredKeyString' : 
   /'<New>StructuredOrderedDict' : 
   /{ 
   /   /'MyTuplesList' : [ 
   /   /   /'0' : ('StructuredKeyString', 'MyTuplesList')
   /   /   /'1' : ('MyString', 'Hello')
   /   / ]
   /   /'MyDict' : 
   /   /{ 
   /   /   /'MyOtherString' : Bonjour
   /   /   /'StructuredKeyString' : MyDict
   /   / }
   / }
 }