2014-10-08 16:22:59,106 MainProcess Environment INFO     I will us the hdf5 file `./hdf5/FiringRate_2014_10_08_16h22m59s.hdf5`.
2014-10-08 16:22:59,108 MainProcess Environment INFO     Environment initialized.
2014-10-08 16:22:59,109 MainProcess STDOUT INFO     <NNGroupNode>: Essai: []
