2014-10-08 16:27:46,925 MainProcess STDERR ERROR    Traceback (most recent call last):
2014-10-08 16:27:46,925 MainProcess STDERR ERROR      File "/Users/erwanledoux/Documents/ProfessionalSYS/Modules/Scripts/Test.py", line 36, in <module>
2014-10-08 16:27:46,925 MainProcess STDERR ERROR    r.f_store()
2014-10-08 16:27:46,926 MainProcess STDERR ERROR    AttributeError
2014-10-08 16:27:46,926 MainProcess STDERR ERROR    :
2014-10-08 16:27:46,926 MainProcess STDERR ERROR    'Environment' object has no attribute 'f_store'
