2014-10-07 22:40:10,958 MainProcess Environment INFO     I will us the hdf5 file `/Users/erwanledoux/Documents/ProfessionalSYS/Modules/Init/Modules/00e_Pypeter/hdf5/trajectory_2014_10_07_22h40m10s.hdf5`.
2014-10-07 22:40:10,961 MainProcess Environment INFO     Environment initialized.
2014-10-07 22:40:10,961 MainProcess STDOUT INFO     < (PypeterClass) >
2014-10-07 22:40:10,961 MainProcess STDOUT INFO     {
2014-10-07 22:40:10,962 MainProcess STDOUT INFO        /'<NotSpe>AppendedKeyStringsList' : []
2014-10-07 22:40:10,962 MainProcess STDOUT INFO        /'<NotSpe>AppendedValueVariablesList' : []
2014-10-07 22:40:10,962 MainProcess STDOUT INFO        /'<Spe>PypetEnvironnementPointer' : < (Environment) >
2014-10-07 22:40:10,962 MainProcess STDOUT INFO      }
2014-10-07 22:40:10,964 MainProcess Environment INFO     I will us the hdf5 file `/Users/erwanledoux/Documents/ProfessionalSYS/Modules/Init/Modules/00e_Pypeter/hdf5/trajectory_2014_10_07_22h40m10s.hdf5`.
2014-10-07 22:40:10,964 MainProcess Environment INFO     I will us the hdf5 file `/Users/erwanledoux/Documents/ProfessionalSYS/Modules/Init/Modules/00e_Pypeter/hdf5/trajectory_2014_10_07_22h40m10s.hdf5`.
2014-10-07 22:40:10,966 MainProcess Environment INFO     Environment initialized.
2014-10-07 22:40:10,966 MainProcess Environment INFO     Environment initialized.
2014-10-07 22:40:10,968 MainProcess Environment INFO     I will us the hdf5 file `/Users/erwanledoux/Documents/ProfessionalSYS/Modules/Init/Modules/00e_Pypeter/hdf5/trajectory_2014_10_07_22h40m10s.hdf5`.
2014-10-07 22:40:10,968 MainProcess Environment INFO     I will us the hdf5 file `/Users/erwanledoux/Documents/ProfessionalSYS/Modules/Init/Modules/00e_Pypeter/hdf5/trajectory_2014_10_07_22h40m10s.hdf5`.
2014-10-07 22:40:10,970 MainProcess Environment INFO     Environment initialized.
2014-10-07 22:40:10,970 MainProcess Environment INFO     Environment initialized.
2014-10-07 22:40:10,971 MainProcess STDOUT INFO     < (SumClass) >
2014-10-07 22:40:10,971 MainProcess STDOUT INFO     < (SumClass) >
2014-10-07 22:40:10,971 MainProcess STDOUT INFO     {
2014-10-07 22:40:10,971 MainProcess STDOUT INFO     {
2014-10-07 22:40:10,971 MainProcess STDOUT INFO        /'<NotSpe>AppendedKeyStringsList' : []
2014-10-07 22:40:10,971 MainProcess STDOUT INFO        /'<NotSpe>AppendedKeyStringsList' : []
2014-10-07 22:40:10,972 MainProcess STDOUT INFO        /'<NotSpe>AppendedValueVariablesList' : []
2014-10-07 22:40:10,972 MainProcess STDOUT INFO        /'<NotSpe>AppendedValueVariablesList' : []
2014-10-07 22:40:10,972 MainProcess STDOUT INFO        /'<Spe>MaxFloat' : 100.0
2014-10-07 22:40:10,972 MainProcess STDOUT INFO        /'<Spe>MaxFloat' : 100.0
2014-10-07 22:40:10,972 MainProcess STDOUT INFO        /'<Spe>MinFloat' : -100.0
2014-10-07 22:40:10,972 MainProcess STDOUT INFO        /'<Spe>MinFloat' : -100.0
2014-10-07 22:40:10,972 MainProcess STDOUT INFO        /'<Spe>SumInt' : 0
2014-10-07 22:40:10,972 MainProcess STDOUT INFO        /'<Spe>SumInt' : 0
2014-10-07 22:40:10,973 MainProcess STDOUT INFO        /'<Spe>SumIntsList' : [0, 0]
2014-10-07 22:40:10,973 MainProcess STDOUT INFO        /'<Spe>SumIntsList' : [0, 0]
2014-10-07 22:40:10,973 MainProcess STDOUT INFO      }
2014-10-07 22:40:10,973 MainProcess STDOUT INFO      }
2014-10-07 22:40:10,974 MainProcess STDOUT INFO     #################
2014-10-07 22:40:10,974 MainProcess STDOUT INFO     #################
2014-10-07 22:40:10,974 MainProcess STDOUT INFO     <test_01_append>
2014-10-07 22:40:10,974 MainProcess STDOUT INFO     <test_01_append>
2014-10-07 22:40:10,974 MainProcess STDOUT INFO     #################
2014-10-07 22:40:10,974 MainProcess STDOUT INFO     #################
2014-10-07 22:40:10,974 MainProcess STDOUT INFO     AssertingString is :
2014-10-07 22:40:10,974 MainProcess STDOUT INFO     AssertingString is :
2014-10-07 22:40:10,975 MainProcess STDOUT INFO     < (PypeterClass) >
2014-10-07 22:40:10,975 MainProcess STDOUT INFO     < (PypeterClass) >
2014-10-07 22:40:10,975 MainProcess STDOUT INFO     {
2014-10-07 22:40:10,975 MainProcess STDOUT INFO     {
2014-10-07 22:40:10,975 MainProcess STDOUT INFO        /'<NotSpe>AppendedKeyStringsList' : ['(MinFloat,-100.0)_(MaxFloat,100.0)']
2014-10-07 22:40:10,975 MainProcess STDOUT INFO        /'<NotSpe>AppendedKeyStringsList' : ['(MinFloat,-100.0)_(MaxFloat,100.0)']
2014-10-07 22:40:10,975 MainProcess STDOUT INFO        /'<NotSpe>AppendedValueVariablesList' :
2014-10-07 22:40:10,975 MainProcess STDOUT INFO        /'<NotSpe>AppendedValueVariablesList' :
2014-10-07 22:40:10,976 MainProcess STDOUT INFO        /[
2014-10-07 22:40:10,976 MainProcess STDOUT INFO        /[
2014-10-07 22:40:10,976 MainProcess STDOUT INFO        /   /'0' : < (SumClass) >
2014-10-07 22:40:10,976 MainProcess STDOUT INFO        /   /'0' : < (SumClass) >
2014-10-07 22:40:10,976 MainProcess STDOUT INFO        /   /{
2014-10-07 22:40:10,976 MainProcess STDOUT INFO        /   /{
2014-10-07 22:40:10,976 MainProcess STDOUT INFO        /   /   /'<NotSpe>AppendedKeyStringsList' : []
2014-10-07 22:40:10,976 MainProcess STDOUT INFO        /   /   /'<NotSpe>AppendedKeyStringsList' : []
2014-10-07 22:40:10,976 MainProcess STDOUT INFO        /   /   /'<NotSpe>AppendedValueVariablesList' : []
2014-10-07 22:40:10,976 MainProcess STDOUT INFO        /   /   /'<NotSpe>AppendedValueVariablesList' : []
2014-10-07 22:40:10,977 MainProcess STDOUT INFO        /   /   /'<Spe>MaxFloat' : 100.0
2014-10-07 22:40:10,977 MainProcess STDOUT INFO        /   /   /'<Spe>MaxFloat' : 100.0
2014-10-07 22:40:10,977 MainProcess STDOUT INFO        /   /   /'<Spe>MinFloat' : -100.0
2014-10-07 22:40:10,977 MainProcess STDOUT INFO        /   /   /'<Spe>MinFloat' : -100.0
2014-10-07 22:40:10,977 MainProcess STDOUT INFO        /   /   /'<Spe>SumInt' : 0
2014-10-07 22:40:10,977 MainProcess STDOUT INFO        /   /   /'<Spe>SumInt' : 0
2014-10-07 22:40:10,977 MainProcess STDOUT INFO        /   /   /'<Spe>SumIntsList' : [0, 0]
2014-10-07 22:40:10,977 MainProcess STDOUT INFO        /   /   /'<Spe>SumIntsList' : [0, 0]
2014-10-07 22:40:10,977 MainProcess STDOUT INFO        /   / }
2014-10-07 22:40:10,977 MainProcess STDOUT INFO        /   / }
2014-10-07 22:40:10,978 MainProcess STDOUT INFO        / ]
2014-10-07 22:40:10,978 MainProcess STDOUT INFO        / ]
2014-10-07 22:40:10,978 MainProcess STDOUT INFO        /'<Spe>PypetEnvironnementPointer' : < (Environment) >
2014-10-07 22:40:10,978 MainProcess STDOUT INFO        /'<Spe>PypetEnvironnementPointer' : < (Environment) >
2014-10-07 22:40:10,978 MainProcess STDOUT INFO      }
2014-10-07 22:40:10,978 MainProcess STDOUT INFO      }
2014-10-07 22:40:10,978 MainProcess STDOUT INFO     AssertedString is :
2014-10-07 22:40:10,978 MainProcess STDOUT INFO     AssertedString is :
2014-10-07 22:40:10,980 MainProcess Environment INFO     I will us the hdf5 file `/Users/erwanledoux/Documents/ProfessionalSYS/Modules/Init/Modules/00e_Pypeter/hdf5/trajectory_2014_10_07_22h40m10s.hdf5`.
2014-10-07 22:40:10,980 MainProcess Environment INFO     I will us the hdf5 file `/Users/erwanledoux/Documents/ProfessionalSYS/Modules/Init/Modules/00e_Pypeter/hdf5/trajectory_2014_10_07_22h40m10s.hdf5`.
2014-10-07 22:40:10,982 MainProcess Environment INFO     Environment initialized.
2014-10-07 22:40:10,982 MainProcess Environment INFO     Environment initialized.
2014-10-07 22:40:10,983 MainProcess STDOUT INFO     < (SumClass) >
2014-10-07 22:40:10,983 MainProcess STDOUT INFO     < (SumClass) >
2014-10-07 22:40:10,983 MainProcess STDOUT INFO     {
2014-10-07 22:40:10,983 MainProcess STDOUT INFO     {
2014-10-07 22:40:10,984 MainProcess STDOUT INFO        /'<NotSpe>AppendedKeyStringsList' : []
2014-10-07 22:40:10,984 MainProcess STDOUT INFO        /'<NotSpe>AppendedKeyStringsList' : []
2014-10-07 22:40:10,984 MainProcess STDOUT INFO        /'<NotSpe>AppendedValueVariablesList' : []
2014-10-07 22:40:10,984 MainProcess STDOUT INFO        /'<NotSpe>AppendedValueVariablesList' : []
2014-10-07 22:40:10,984 MainProcess STDOUT INFO        /'<Spe>MaxFloat' : 100.0
2014-10-07 22:40:10,984 MainProcess STDOUT INFO        /'<Spe>MaxFloat' : 100.0
2014-10-07 22:40:10,984 MainProcess STDOUT INFO        /'<Spe>MinFloat' : -100.0
2014-10-07 22:40:10,984 MainProcess STDOUT INFO        /'<Spe>MinFloat' : -100.0
2014-10-07 22:40:10,985 MainProcess STDOUT INFO        /'<Spe>SumInt' : 0
2014-10-07 22:40:10,985 MainProcess STDOUT INFO        /'<Spe>SumInt' : 0
2014-10-07 22:40:10,985 MainProcess STDOUT INFO        /'<Spe>SumIntsList' : [0, 0]
2014-10-07 22:40:10,985 MainProcess STDOUT INFO        /'<Spe>SumIntsList' : [0, 0]
2014-10-07 22:40:10,985 MainProcess STDOUT INFO      }
2014-10-07 22:40:10,985 MainProcess STDOUT INFO      }
2014-10-07 22:40:10,986 MainProcess STDOUT INFO     < (PypeterClass) >
2014-10-07 22:40:10,986 MainProcess STDOUT INFO     < (PypeterClass) >
2014-10-07 22:40:10,986 MainProcess STDOUT INFO     {
2014-10-07 22:40:10,986 MainProcess STDOUT INFO     {
2014-10-07 22:40:10,987 MainProcess STDOUT INFO        /'<NotSpe>AppendedKeyStringsList' : ['(MinFloat,-100.0)_(MaxFloat,100.0)']
2014-10-07 22:40:10,987 MainProcess STDOUT INFO        /'<NotSpe>AppendedKeyStringsList' : ['(MinFloat,-100.0)_(MaxFloat,100.0)']
2014-10-07 22:40:10,987 MainProcess STDOUT INFO        /'<NotSpe>AppendedValueVariablesList' :
2014-10-07 22:40:10,987 MainProcess STDOUT INFO        /'<NotSpe>AppendedValueVariablesList' :
2014-10-07 22:40:10,987 MainProcess STDOUT INFO        /[
2014-10-07 22:40:10,987 MainProcess STDOUT INFO        /[
2014-10-07 22:40:10,987 MainProcess STDOUT INFO        /   /'0' : < (SumClass) >
2014-10-07 22:40:10,987 MainProcess STDOUT INFO        /   /'0' : < (SumClass) >
2014-10-07 22:40:10,988 MainProcess STDOUT INFO        /   /{
2014-10-07 22:40:10,988 MainProcess STDOUT INFO        /   /{
2014-10-07 22:40:10,988 MainProcess STDOUT INFO        /   /   /'<NotSpe>AppendedKeyStringsList' : []
2014-10-07 22:40:10,988 MainProcess STDOUT INFO        /   /   /'<NotSpe>AppendedKeyStringsList' : []
2014-10-07 22:40:10,988 MainProcess STDOUT INFO        /   /   /'<NotSpe>AppendedValueVariablesList' : []
2014-10-07 22:40:10,988 MainProcess STDOUT INFO        /   /   /'<NotSpe>AppendedValueVariablesList' : []
2014-10-07 22:40:10,988 MainProcess STDOUT INFO        /   /   /'<Spe>MaxFloat' : 100.0
2014-10-07 22:40:10,988 MainProcess STDOUT INFO        /   /   /'<Spe>MaxFloat' : 100.0
2014-10-07 22:40:10,989 MainProcess STDOUT INFO        /   /   /'<Spe>MinFloat' : -100.0
2014-10-07 22:40:10,989 MainProcess STDOUT INFO        /   /   /'<Spe>MinFloat' : -100.0
2014-10-07 22:40:10,989 MainProcess STDOUT INFO        /   /   /'<Spe>SumInt' : 0
2014-10-07 22:40:10,989 MainProcess STDOUT INFO        /   /   /'<Spe>SumInt' : 0
2014-10-07 22:40:10,989 MainProcess STDOUT INFO        /   /   /'<Spe>SumIntsList' : [0, 0]
2014-10-07 22:40:10,989 MainProcess STDOUT INFO        /   /   /'<Spe>SumIntsList' : [0, 0]
2014-10-07 22:40:10,989 MainProcess STDOUT INFO        /   / }
2014-10-07 22:40:10,989 MainProcess STDOUT INFO        /   / }
2014-10-07 22:40:10,989 MainProcess STDOUT INFO        / ]
2014-10-07 22:40:10,989 MainProcess STDOUT INFO        / ]
2014-10-07 22:40:10,990 MainProcess STDOUT INFO        /'<Spe>PypetEnvironnementPointer' : < (Environment) >
2014-10-07 22:40:10,990 MainProcess STDOUT INFO        /'<Spe>PypetEnvironnementPointer' : < (Environment) >
2014-10-07 22:40:10,990 MainProcess STDOUT INFO      }
2014-10-07 22:40:10,990 MainProcess STDOUT INFO      }
2014-10-07 22:40:10,992 MainProcess Environment INFO     I will us the hdf5 file `/Users/erwanledoux/Documents/ProfessionalSYS/Modules/Init/Modules/00e_Pypeter/hdf5/trajectory_2014_10_07_22h40m10s.hdf5`.
2014-10-07 22:40:10,992 MainProcess Environment INFO     I will us the hdf5 file `/Users/erwanledoux/Documents/ProfessionalSYS/Modules/Init/Modules/00e_Pypeter/hdf5/trajectory_2014_10_07_22h40m10s.hdf5`.
2014-10-07 22:40:10,994 MainProcess Environment INFO     Environment initialized.
2014-10-07 22:40:10,994 MainProcess Environment INFO     Environment initialized.
2014-10-07 22:40:10,995 MainProcess STDOUT INFO     < (SumClass) >
2014-10-07 22:40:10,995 MainProcess STDOUT INFO     < (SumClass) >
2014-10-07 22:40:10,995 MainProcess STDOUT INFO     {
2014-10-07 22:40:10,995 MainProcess STDOUT INFO     {
2014-10-07 22:40:10,996 MainProcess STDOUT INFO        /'<NotSpe>AppendedKeyStringsList' : []
2014-10-07 22:40:10,996 MainProcess STDOUT INFO        /'<NotSpe>AppendedKeyStringsList' : []
2014-10-07 22:40:10,996 MainProcess STDOUT INFO        /'<NotSpe>AppendedValueVariablesList' : []
2014-10-07 22:40:10,996 MainProcess STDOUT INFO        /'<NotSpe>AppendedValueVariablesList' : []
2014-10-07 22:40:10,996 MainProcess STDOUT INFO        /'<Spe>MaxFloat' : 100.0
2014-10-07 22:40:10,996 MainProcess STDOUT INFO        /'<Spe>MaxFloat' : 100.0
2014-10-07 22:40:10,996 MainProcess STDOUT INFO        /'<Spe>MinFloat' : -100.0
2014-10-07 22:40:10,996 MainProcess STDOUT INFO        /'<Spe>MinFloat' : -100.0
2014-10-07 22:40:10,997 MainProcess STDOUT INFO        /'<Spe>SumInt' : 0
2014-10-07 22:40:10,997 MainProcess STDOUT INFO        /'<Spe>SumInt' : 0
2014-10-07 22:40:10,997 MainProcess STDOUT INFO        /'<Spe>SumIntsList' : [0, 0]
2014-10-07 22:40:10,997 MainProcess STDOUT INFO        /'<Spe>SumIntsList' : [0, 0]
2014-10-07 22:40:10,997 MainProcess STDOUT INFO      }
2014-10-07 22:40:10,997 MainProcess STDOUT INFO      }
