< (ObjectClass) >
{ 
   /'<Spe>FeaturedModelClass' : None
   /'<Spe>GrabbedVariablesList' : []
   /'<Spe>GroupedFilePointer' : < (NoneType) >
   /'<Spe>GroupedGrandParentPointersList' : []
   /'<Spe>GroupedInt' : -1
   /'<Spe>GroupedKeyString' : 
   /'<Spe>GroupedOrderedDict' : 
   /{ 
   /   /'ChildObject1' : < (ObjectClass) >
   /   /{ 
   /   /   /'<New>GroupedGrandParentKeyStringsList' : ['']
   /   /   /'<Spe>FeaturedModelClass' : None
   /   /   /'<Spe>GrabbedVariablesList' : []
   /   /   /'<Spe>GroupedFilePointer' : < (NoneType) >
   /   /   /'<Spe>GroupedGrandParentPointersList' : ['< (ObjectClass) >']
   /   /   /'<Spe>GroupedInt' : 0
   /   /   /'<Spe>GroupedKeyString' : ChildObject1
   /   /   /'<Spe>GroupedOrderedDict' : 
   /   /   /{ 
   /   /   /   /'GrandChildObject1' : < (ObjectClass) >
   /   /   /   /{ 
   /   /   /   /   /'<New>GroupedGrandParentKeyStringsList' : ['ChildObject1', '']
   /   /   /   /   /'<Spe>FeaturedModelClass' : None
   /   /   /   /   /'<Spe>GrabbedVariablesList' : []
   /   /   /   /   /'<Spe>GroupedFilePointer' : < (NoneType) >
   /   /   /   /   /'<Spe>GroupedGrandParentPointersList' : ['< (ObjectClass) >', '< (ObjectClass) >']
   /   /   /   /   /'<Spe>GroupedInt' : 0
   /   /   /   /   /'<Spe>GroupedKeyString' : GrandChildObject1
   /   /   /   /   /'<Spe>GroupedOrderedDict' : 
   /   /   /   /   /{ 
   /   /   /   /
   /   /   /   /   / }
   /   /   /   /   /'<Spe>GroupedPathString' : /ChildObject1/GrandChildObject1
   /   /   /   /   /'<Spe>JoinedTuplesList' : []
   /   /   /   /   /'<Spe>SortedOrderedDict' : 
   /   /   /   /   /{ 
   /   /   /   /
   /   /   /   /   / }
   /   /   /   /   /'<Spe>StructuredGrandParentPointersList' : []
   /   /   /   /   /'<Spe>StructuredInt' : -1
   /   /   /   /   /'<Spe>StructuredKeyString' : 
   /   /   /   /   /'<Spe>StructuredOrderedDict' : 
   /   /   /   /   /{ 
   /   /   /   /
   /   /   /   /   / }
   /   /   /   /   /'<Spe>WalkedOrderedDict' : None
   /   /   /   / }
   /   /   / }
   /   /   /'<Spe>GroupedPathString' : /ChildObject1
   /   /   /'<Spe>JoinedTuplesList' : []
   /   /   /'<Spe>SortedOrderedDict' : 
   /   /   /{ 
   /   /
   /   /   / }
   /   /   /'<Spe>StructuredGrandParentPointersList' : []
   /   /   /'<Spe>StructuredInt' : -1
   /   /   /'<Spe>StructuredKeyString' : 
   /   /   /'<Spe>StructuredOrderedDict' : 
   /   /   /{ 
   /   /
   /   /   / }
   /   /   /'<Spe>WalkedOrderedDict' : None
   /   / }
   /   /'ChildObject2' : < (ObjectClass) >
   /   /{ 
   /   /   /'<New>GroupedGrandParentKeyStringsList' : ['']
   /   /   /'<Spe>FeaturedModelClass' : None
   /   /   /'<Spe>GrabbedVariablesList' : []
   /   /   /'<Spe>GroupedFilePointer' : < (NoneType) >
   /   /   /'<Spe>GroupedGrandParentPointersList' : ['< (ObjectClass) >']
   /   /   /'<Spe>GroupedInt' : 1
   /   /   /'<Spe>GroupedKeyString' : ChildObject2
   /   /   /'<Spe>GroupedOrderedDict' : 
   /   /   /{ 
   /   /
   /   /   / }
   /   /   /'<Spe>GroupedPathString' : /ChildObject2
   /   /   /'<Spe>JoinedTuplesList' : []
   /   /   /'<Spe>SortedOrderedDict' : 
   /   /   /{ 
   /   /
   /   /   / }
   /   /   /'<Spe>StructuredGrandParentPointersList' : []
   /   /   /'<Spe>StructuredInt' : -1
   /   /   /'<Spe>StructuredKeyString' : 
   /   /   /'<Spe>StructuredOrderedDict' : 
   /   /   /{ 
   /   /
   /   /   / }
   /   /   /'<Spe>WalkedOrderedDict' : None
   /   / }
   / }
   /'<Spe>GroupedPathString' : /
   /'<Spe>JoinedTuplesList' : []
   /'<Spe>SortedOrderedDict' : 
   /{ 

   / }
   /'<Spe>StructuredGrandParentPointersList' : []
   /'<Spe>StructuredInt' : -1
   /'<Spe>StructuredKeyString' : 
   /'<Spe>StructuredOrderedDict' : 
   /{ 

   / }
   /'<Spe>WalkedOrderedDict' : 
   /{ 
   /   /'GrabbedVariablesOrderedDict' : 
   /   /{ 

   /   / }
   /   /'RoutedVariablesList' : []
   /   /'TopPointersList' : []
   /   /'TopWalkedIntsList' : []
   /   /'WalkedInt' : 2
   / }
 }