
[ 
   /'0' : 0
   /'1' : < (ObjectClass) >
   /{ 
   /   /'<New>MyFloat' : 0.4444
   /   /'<New>MyString' : hello
   /   /'<Spe>FeaturedModelClass' : None
   /   /'<Spe>GrabbedVariablesList' : []
   /   /'<Spe>GroupedFilePointer' : < (NoneType) >
   /   /'<Spe>GroupedGrandParentPointersList' : []
   /   /'<Spe>GroupedInt' : -1
   /   /'<Spe>GroupedKeyString' : 
   /   /'<Spe>GroupedOrderedDict' : 
   /   /{ 
   /
   /   / }
   /   /'<Spe>GroupedPathString' : /
   /   /'<Spe>JoinedTuplesList' : []
   /   /'<Spe>SortedOrderedDict' : 
   /   /{ 
   /
   /   / }
   /   /'<Spe>StructuredGrandParentPointersList' : []
   /   /'<Spe>StructuredInt' : -1
   /   /'<Spe>StructuredKeyString' : 
   /   /'<Spe>StructuredOrderedDict' : 
   /   /{ 
   /
   /   / }
   /   /'<Spe>WalkedOrderedDict' : None
   / }
   /'2' : < (ObjectClass) >
   /{ 
   /   /'<New>MyFloat' : 0.1
   /   /'<New>MyString' : hello
   /   /'<Spe>FeaturedModelClass' : None
   /   /'<Spe>GrabbedVariablesList' : []
   /   /'<Spe>GroupedFilePointer' : < (NoneType) >
   /   /'<Spe>GroupedGrandParentPointersList' : []
   /   /'<Spe>GroupedInt' : -1
   /   /'<Spe>GroupedKeyString' : 
   /   /'<Spe>GroupedOrderedDict' : 
   /   /{ 
   /
   /   / }
   /   /'<Spe>GroupedPathString' : /
   /   /'<Spe>JoinedTuplesList' : []
   /   /'<Spe>SortedOrderedDict' : 
   /   /{ 
   /
   /   / }
   /   /'<Spe>StructuredGrandParentPointersList' : []
   /   /'<Spe>StructuredInt' : -1
   /   /'<Spe>StructuredKeyString' : 
   /   /'<Spe>StructuredOrderedDict' : 
   /   /{ 
   /
   /   / }
   /   /'<Spe>WalkedOrderedDict' : None
   / }
   /'3' : hello
 ]