< (ObjectClass) >
{ 
   /'<New>MyInt' : 0
   /'<New>MyNotLostString' : ben he
   /'<New>MySecondString' : Bonjour
   /'<New>MyString' : Hello
   /'<New>MyThirdString' : GutenTag
   /'<Spe>FeaturedModelClass' : None
   /'<Spe>GrabbedVariablesList' : []
   /'<Spe>GroupedFilePointer' : < (NoneType) >
   /'<Spe>GroupedGrandParentPointersList' : []
   /'<Spe>GroupedInt' : -1
   /'<Spe>GroupedKeyString' : 
   /'<Spe>GroupedOrderedDict' : 
   /{ 

   / }
   /'<Spe>GroupedPathString' : /
   /'<Spe>JoinedTuplesList' : []
   /'<Spe>SortedOrderedDict' : 
   /{ 

   / }
   /'<Spe>StructuredGrandParentPointersList' : []
   /'<Spe>StructuredInt' : -1
   /'<Spe>StructuredKeyString' : 
   /'<Spe>StructuredOrderedDict' : 
   /{ 

   / }
   /'<Spe>WalkedOrderedDict' : None
 }