2014-10-07 22:40:10,992 MainProcess Environment INFO     I will us the hdf5 file `/Users/erwanledoux/Documents/ProfessionalSYS/Modules/Init/Modules/00e_Pypeter/hdf5/trajectory_2014_10_07_22h40m10s.hdf5`.
2014-10-07 22:40:10,994 MainProcess Environment INFO     Environment initialized.
2014-10-07 22:40:10,995 MainProcess STDOUT INFO     < (SumClass) >
2014-10-07 22:40:10,995 MainProcess STDOUT INFO     {
2014-10-07 22:40:10,996 MainProcess STDOUT INFO        /'<NotSpe>AppendedKeyStringsList' : []
2014-10-07 22:40:10,996 MainProcess STDOUT INFO        /'<NotSpe>AppendedValueVariablesList' : []
2014-10-07 22:40:10,996 MainProcess STDOUT INFO        /'<Spe>MaxFloat' : 100.0
2014-10-07 22:40:10,996 MainProcess STDOUT INFO        /'<Spe>MinFloat' : -100.0
2014-10-07 22:40:10,997 MainProcess STDOUT INFO        /'<Spe>SumInt' : 0
2014-10-07 22:40:10,997 MainProcess STDOUT INFO        /'<Spe>SumIntsList' : [0, 0]
2014-10-07 22:40:10,997 MainProcess STDOUT INFO      }
