
[ 
   /'0' : 3
   /'1' : < (ObjectClass) >
   /{ 
   /   /'<New>MyOtherFloat' : 0.5555
   /   /'<New>MyOtherString' : bonjour
   /   /'<Spe>FeaturedModelClass' : None
   /   /'<Spe>GrabbedVariablesList' : []
   /   /'<Spe>GroupedFilePointer' : < (NoneType) >
   /   /'<Spe>GroupedGrandParentPointersList' : []
   /   /'<Spe>GroupedInt' : 0
   /   /'<Spe>GroupedKeyString' : MyAppendedObject
   /   /'<Spe>GroupedOrderedDict' : 
   /   /{ 
   /
   /   / }
   /   /'<Spe>GroupedPathString' : /
   /   /'<Spe>JoinedTuplesList' : []
   /   /'<Spe>SortedOrderedDict' : 
   /   /{ 
   /
   /   / }
   /   /'<Spe>StructuredGrandParentPointersList' : []
   /   /'<Spe>StructuredInt' : -1
   /   /'<Spe>StructuredKeyString' : 
   /   /'<Spe>StructuredOrderedDict' : 
   /   /{ 
   /
   /   / }
   /   /'<Spe>WalkedOrderedDict' : None
   / }
   /'2' : < (ObjectClass) >
   /{ 
   /   /'<New>MyOtherFloat' : 0.2
   /   /'<New>MyOtherString' : bonjour
   /   /'<Spe>FeaturedModelClass' : None
   /   /'<Spe>GrabbedVariablesList' : []
   /   /'<Spe>GroupedFilePointer' : < (NoneType) >
   /   /'<Spe>GroupedGrandParentPointersList' : []
   /   /'<Spe>GroupedInt' : 0
   /   /'<Spe>GroupedKeyString' : MyAppendedObject
   /   /'<Spe>GroupedOrderedDict' : 
   /   /{ 
   /
   /   / }
   /   /'<Spe>GroupedPathString' : /
   /   /'<Spe>JoinedTuplesList' : []
   /   /'<Spe>SortedOrderedDict' : 
   /   /{ 
   /
   /   / }
   /   /'<Spe>StructuredGrandParentPointersList' : []
   /   /'<Spe>StructuredInt' : -1
   /   /'<Spe>StructuredKeyString' : 
   /   /'<Spe>StructuredOrderedDict' : 
   /   /{ 
   /
   /   / }
   /   /'<Spe>WalkedOrderedDict' : None
   / }
   /'3' : bonjour
   /'4' : < (ObjectClass) >
   /{ 
   /   /'<New>MyOtherFloat' : 0.5555
   /   /'<New>MyOtherString' : bonjour
   /   /'<Spe>FeaturedModelClass' : None
   /   /'<Spe>GrabbedVariablesList' : []
   /   /'<Spe>GroupedFilePointer' : < (NoneType) >
   /   /'<Spe>GroupedGrandParentPointersList' : []
   /   /'<Spe>GroupedInt' : 0
   /   /'<Spe>GroupedKeyString' : MyAppendedObject
   /   /'<Spe>GroupedOrderedDict' : 
   /   /{ 
   /
   /   / }
   /   /'<Spe>GroupedPathString' : /
   /   /'<Spe>JoinedTuplesList' : []
   /   /'<Spe>SortedOrderedDict' : 
   /   /{ 
   /
   /   / }
   /   /'<Spe>StructuredGrandParentPointersList' : []
   /   /'<Spe>StructuredInt' : -1
   /   /'<Spe>StructuredKeyString' : 
   /   /'<Spe>StructuredOrderedDict' : 
   /   /{ 
   /
   /   / }
   /   /'<Spe>WalkedOrderedDict' : None
   / }
   /'5' : Object
 ]